{
  "Modality": {
    "Interaction_modality": "desktop",
    "Size": {
      "width": 1858,
      "height": 1045
    }
  },
  "Interface": [
    {
      "Encoding":[
        {
          "projection": {
            "type":"equirectangular"
          },
          "url": "./country-110m.json",
          "feature": "countries"
        },
        {
          "url": "./demo2/map.csv",
          "x": {
            "field": "Long",
            "datum": "quantitative"
          },
          "y": {
            "field": "Lat",
            "datum": "quantitative"
          },
          "color":{
            "field":"Average IMDb",
            "datum": "quantitative",
            "scale": {
              "range": ["#FC0000","#FFFF33","#097F00"]
            }
          }
        }
      ],
      "ViewType": [
        {
          "type": "geoshape",
          "fill": "lightgray",
          "stroke": "white"
        },
        {
          "type": "circle"
        }
      ],
      "BoundingBox": {
        "CenterPosition": {
        "x": 0.33333,
        "y": 0.296297
      },
        "Size": {
          "width": 0.66666,
          "height": 0.59259
        }
      }
    },
    {
      "Encoding": {
        "url": "./demo2/linechart_1.csv",
        "x": {
          "field": "Date",
          "datum": "temporal"
        },
        "y": {
          "field": "Netflix",
          "datum": "quantitative"
        }
      },
      "ViewType": {
        "type":  "area",
        "color": "#4c78a8"
      },
      "BoundingBox": {
        "CenterPosition": {
          "x": 0.83333,
          "y": 0.125
        },
        "Size": {
          "width": 0.33333,
          "height": 0.25
        }
      }
    },
    {
      "Encoding": {
        "url": "./demo2/linechart_2.csv",
        "x": {
          "field": "Date",
          "datum": "temporal"
        },
        "y": {
          "field": "Hulu",
          "datum": "quantitative"
        }
      },
      "ViewType": {
        "type": "area",
        "color": "#4c78a8"
      },
      "BoundingBox": {
        "CenterPosition": {
          "x": 0.83333,
          "y": 0.375
        },
        "Size": {
          "width": 0.33333,
          "height": 0.25
        }
      }
    },
    {
      "Encoding": {
        "url": "./demo2/linechart_3.csv",
        "x": {
          "field": "Date",
          "datum": "temporal"
        },
        "y": {
          "field": "Disney+",
          "datum": "quantitative"
        }
      },
      "ViewType": {
        "type": "area",
        "color": "#4c78a8"
      },
      "BoundingBox": {
        "CenterPosition": {
          "x": 0.83333,
          "y": 0.625
        },
        "Size": {
          "width": 0.33333,
          "height": 0.25
        }
      }
    },
    {
      "Encoding": {
        "url": "./demo2/linechart_4.csv",
        "x": {
          "field": "Date",
          "datum": "temporal"
        },
        "y": {
          "field": "Prime Video",
          "datum": "quantitative"
        }
      },
      "ViewType": {
        "type": "area",
        "color": "#4c78a8"
      },
      "BoundingBox": {
        "CenterPosition": {
          "x": 0.83333,
          "y": 0.875
        },
        "Size": {
          "width": 0.33333,
          "height": 0.25
        }
      }
    },
    {
      "title": "Netflix",
      "Encoding": {
        "url": "./demo2/barchart_1.csv",
        "x": {
          "field": "Age",
          "datum": "nominal",
          "sort": {"field": "order"}
        },
        "y": {
          "field": "Movie number(K)",
          "datum": "quantitative"
        },
        "color": {
          "field": "Age",
          "datum": "nominal",
          "legend": null,
          "scale": {
            "range": ["#439894","#79706e","#e45756","#b279a2","#f58518"]
          }
        }
      },
      "ViewType": {
        "type": "bar"
      },
      "BoundingBox": {
        "CenterPosition": {
          "x": 0.083333,
          "y": 0.796296
        },
        "Size": {
          "width": 0.166667,
          "height": 0.407407
        }
      }
    },
    {
      "title": "Hulu",
      "Encoding": {
        "url": "./demo2/barchart_2.csv",
        "x": {
          "field": "Age",
          "datum": "nominal",
          "sort": {"field": "order"}
        },
        "y": {
          "field": "Movie number(K)",
          "datum": "quantitative"
        },
        "color": {
          "field": "Age",
          "datum": "nominal",
          "legend": null,
          "scale": {
            "range": ["#439894","#79706e","#e45756","#b279a2","#f58518"]
          }
        }
      },
      "ViewType": {
        "type": "bar"
      },
      "BoundingBox": {
        "CenterPosition": {
          "x": 0.25,
          "y": 0.796296
        },
        "Size": {
          "width": 0.166667,
          "height": 0.407407
        }
      }
    },
    {
      "title": "Disney+",
      "Encoding": {
        "url": "./demo2/barchart_3.csv",
        "x": {
          "field": "Age",
          "datum": "nominal",
          "sort": {"field": "order"}
        },
        "y": {
          "field": "Movie number(K)",
          "datum": "quantitative"
        },
        "color": {
          "field": "Age",
          "datum": "nominal",
          "legend": null,
          "scale": {
            "range": ["#439894","#79706e","#e45756","#b279a2","#f58518"]
          }
        }
      },
      "ViewType": {
        "type": "bar"
      },
      "BoundingBox": {
        "CenterPosition": {
          "x": 0.416667,
          "y": 0.796296
        },
        "Size": {
          "width": 0.166667,
          "height": 0.407407
        }
      }
    },
    {
      "title": "Prime Video",
      "Encoding": {
        "url": "./demo2/barchart_4.csv",
        "x": {
          "field": "Age",
          "datum": "nominal",
          "sort": {"field": "order"}
        },
        "y": {
          "field": "Movie number(K)",
          "datum": "quantitative"
        },
        "color": {
          "field": "Age",
          "datum": "nominal",
          "legend": null,
          "scale": {
            "range": ["#439894","#79706e","#e45756","#b279a2","#f58518"]
          }
        }
      },
      "ViewType": {
        "type": "bar"
      },
      "BoundingBox": {
        "CenterPosition": {
          "x": 0.583333,
          "y": 0.796296
        },
        "Size": {
          "width": 0.166667,
          "height": 0.407407
        }
      }
    }
  ]
}
